%YAML 1.1
%TAG !u! tag:unity3d.com,2011:
--- !u!114 &11400000
MonoBehaviour:
  m_ObjectHideFlags: 0
  m_CorrespondingSourceObject: {fileID: 0}
  m_PrefabInstance: {fileID: 0}
  m_PrefabAsset: {fileID: 0}
  m_GameObject: {fileID: 0}
  m_Enabled: 1
  m_EditorHideFlags: 0
  m_Script: {fileID: 11500000, guid: f77428c9cea51e0419f175298c13860c, type: 3}
  m_Name: SlugMonster
  m_EditorClassIdentifier: 
  TargetDebuffStrike: {fileID: 11400000, guid: 19cb7bda1e2be1b4e88d380ce9fe1d94, type: 2}
  SelfBuffStrike: {fileID: 0}
