%YAML 1.1
%TAG !u! tag:unity3d.com,2011:
--- !u!114 &11400000
MonoBehaviour:
  m_ObjectHideFlags: 0
  m_CorrespondingSourceObject: {fileID: 0}
  m_PrefabInstance: {fileID: 0}
  m_PrefabAsset: {fileID: 0}
  m_GameObject: {fileID: 0}
  m_Enabled: 1
  m_EditorHideFlags: 0
  m_Script: {fileID: 11500000, guid: 7165af756f9624841b6a2aca798d818b, type: 3}
  m_Name: ForestFloors
  m_EditorClassIdentifier: 
  TileList:
  - {fileID: 11400000, guid: 3718aefc53ede164ea65f81aa6b8d863, type: 2}
  - {fileID: 11400000, guid: 28a8eb723ce3daa4fb48c8ce5484395c, type: 2}
  - {fileID: 11400000, guid: 5d71e141a44e9b244a17d734d5f428c6, type: 2}
  - {fileID: 11400000, guid: b75b1eca4b702214e8885e770c763bf1, type: 2}
  - {fileID: 11400000, guid: d987d5fd614e9324e9e2371b984a985c, type: 2}
  - {fileID: 11400000, guid: 02b1d96e3adbd234682cb260767a08b8, type: 2}
  - {fileID: 11400000, guid: 94df60beb2e6a654b85750d84781abf9, type: 2}
  - {fileID: 11400000, guid: 2b86708a6eb8ffb44ad901da22dce5df, type: 2}
  - {fileID: 11400000, guid: f85d34890b9f33745b434cb403844a91, type: 2}
  - {fileID: 11400000, guid: ac0d99dce5a295f4db519f05d7f54d40, type: 2}
