%YAML 1.1
%TAG !u! tag:unity3d.com,2011:
--- !u!114 &11400000
MonoBehaviour:
  m_ObjectHideFlags: 0
  m_CorrespondingSourceObject: {fileID: 0}
  m_PrefabInstance: {fileID: 0}
  m_PrefabAsset: {fileID: 0}
  m_GameObject: {fileID: 0}
  m_Enabled: 1
  m_EditorHideFlags: 0
  m_Script: {fileID: 11500000, guid: 34e143a106893a4468c8a41924f00f5f, type: 3}
  m_Name: Pants1
  m_EditorClassIdentifier: 
  SpriteToReassignDown: {fileID: 0}
  SpriteToReassignUp: {fileID: 0}
  SpriteToReassignLeft: {fileID: 0}
  SpriteToReassignRight: {fileID: 0}
  SpriteToInsertIndex: 0
  SpriteToInsert: {fileID: 0}
  IdleDown: []
  IdleUp: []
  IdleLeft: []
  IdleRight: []
  WalkDown: []
  WalkUp: []
  WalkLeft: []
  WalkRight: []
  DownAttacks: []
  UpAttacks: []
  LeftAttacks: []
  RightAttacks: []
  Special1Down: []
  Special1Up: []
  Special1Left: []
  Special1Right: []
  Special2Down: []
  Special2Up: []
  Special2Left: []
  Special2Right: []
  DownAttacks2: []
  UpAttacks2: []
  LeftAttacks2: []
  RightAttacks2: []
  DownAttacks3: []
  UpAttacks3: []
  LeftAttacks3: []
  RightAttacks3: []
  ListType: 0
