%YAML 1.1
%TAG !u! tag:unity3d.com,2011:
--- !u!114 &11400000
MonoBehaviour:
  m_ObjectHideFlags: 0
  m_CorrespondingSourceObject: {fileID: 0}
  m_PrefabInstance: {fileID: 0}
  m_PrefabAsset: {fileID: 0}
  m_GameObject: {fileID: 0}
  m_Enabled: 1
  m_EditorHideFlags: 0
  m_Script: {fileID: 11500000, guid: fe0a7d4ab86a12a4cb7f365452093b8c, type: 3}
  m_Name: BoneThrowAnim
  m_EditorClassIdentifier: 
  Sprites:
  - {fileID: 21300000, guid: 4b3bc2aaf3d967a45b0e13c90fc45d95, type: 3}
  - {fileID: 21300002, guid: 4b3bc2aaf3d967a45b0e13c90fc45d95, type: 3}
  - {fileID: 21300004, guid: 4b3bc2aaf3d967a45b0e13c90fc45d95, type: 3}
  - {fileID: 21300006, guid: 4b3bc2aaf3d967a45b0e13c90fc45d95, type: 3}
  - {fileID: 21300008, guid: 4b3bc2aaf3d967a45b0e13c90fc45d95, type: 3}
  - {fileID: 21300010, guid: 4b3bc2aaf3d967a45b0e13c90fc45d95, type: 3}
  Duration: 1
  Loop: 1
