﻿# Tiled2Unity generated file. Do not modify by hand.
# Wavefront file for 'AnimatedWaterTest_mesh_0005.obj'

# Vertices (Count = 200)
v -32 -16 -0.1
v -48 -16 -0.1
v -48 0 -0.1
v -32 0 -0.1
v -48 -16 -0.1
v -64 -16 -0.1
v -64 0 -0.1
v -48 0 -0.1
v -64 -16 -0.1
v -80 -16 -0.1
v -80 0 -0.1
v -64 0 -0.1
v -80 -16 -0.1
v -96 -16 -0.1
v -96 0 -0.1
v -80 0 -0.1
v -16 -32 -0.2
v -32 -32 -0.2
v -32 -16 -0.2
v -16 -16 -0.2
v -32 -32 -0.2
v -48 -32 -0.2
v -48 -16 -0.2
v -32 -16 -0.2
v -80 -32 -0.2
v -96 -32 -0.2
v -96 -16 -0.2
v -80 -16 -0.2
v -96 -32 -0.2
v -112 -32 -0.2
v -112 -16 -0.2
v -96 -16 -0.2
v -16 -48 -0.3
v -32 -48 -0.3
v -32 -32 -0.3
v -16 -32 -0.3
v -96 -48 -0.3
v -112 -48 -0.3
v -112 -32 -0.3
v -96 -32 -0.3
v -112 -48 -0.3
v -128 -48 -0.3
v -128 -32 -0.3
v -112 -32 -0.3
v -128 -48 -0.3
v -144 -48 -0.3
v -144 -32 -0.3
v -128 -32 -0.3
v -144 -48 -0.3
v -160 -48 -0.3
v -160 -32 -0.3
v -144 -32 -0.3
v -160 -48 -0.3
v -176 -48 -0.3
v -176 -32 -0.3
v -160 -32 -0.3
v -176 -48 -0.3
v -192 -48 -0.3
v -192 -32 -0.3
v -176 -32 -0.3
v -192 -48 -0.3
v -208 -48 -0.3
v -208 -32 -0.3
v -192 -32 -0.3
v 0 -64 -0.4
v -16 -64 -0.4
v -16 -48 -0.4
v 0 -48 -0.4
v -16 -64 -0.4
v -32 -64 -0.4
v -32 -48 -0.4
v -16 -48 -0.4
v -192 -64 -0.4
v -208 -64 -0.4
v -208 -48 -0.4
v -192 -48 -0.4
v -208 -64 -0.4
v -224 -64 -0.4
v -224 -48 -0.4
v -208 -48 -0.4
v -224 -64 -0.4
v -240 -64 -0.4
v -240 -48 -0.4
v -224 -48 -0.4
v -240 -64 -0.4
v -256 -64 -0.4
v -256 -48 -0.4
v -240 -48 -0.4
v 0 -80 -0.5
v -16 -80 -0.5
v -16 -64 -0.5
v 0 -64 -0.5
v -240 -80 -0.5
v -256 -80 -0.5
v -256 -64 -0.5
v -240 -64 -0.5
v -256 -80 -0.5
v -272 -80 -0.5
v -272 -64 -0.5
v -256 -64 -0.5
v 0 -96 -0.6
v -16 -96 -0.6
v -16 -80 -0.6
v 0 -80 -0.6
v -16 -96 -0.6
v -32 -96 -0.6
v -32 -80 -0.6
v -16 -80 -0.6
v -256 -96 -0.6
v -272 -96 -0.6
v -272 -80 -0.6
v -256 -80 -0.6
v -16 -112 -0.7
v -32 -112 -0.7
v -32 -96 -0.7
v -16 -96 -0.7
v -256 -112 -0.7
v -272 -112 -0.7
v -272 -96 -0.7
v -256 -96 -0.7
v -16 -128 -0.8
v -32 -128 -0.8
v -32 -112 -0.8
v -16 -112 -0.8
v -32 -128 -0.8
v -48 -128 -0.8
v -48 -112 -0.8
v -32 -112 -0.8
v -256 -128 -0.8
v -272 -128 -0.8
v -272 -112 -0.8
v -256 -112 -0.8
v -32 -144 -0.9
v -48 -144 -0.9
v -48 -128 -0.9
v -32 -128 -0.9
v -48 -144 -0.9
v -64 -144 -0.9
v -64 -128 -0.9
v -48 -128 -0.9
v -64 -144 -0.9
v -80 -144 -0.9
v -80 -128 -0.9
v -64 -128 -0.9
v -80 -144 -0.9
v -96 -144 -0.9
v -96 -128 -0.9
v -80 -128 -0.9
v -224 -144 -0.9
v -240 -144 -0.9
v -240 -128 -0.9
v -224 -128 -0.9
v -240 -144 -0.9
v -256 -144 -0.9
v -256 -128 -0.9
v -240 -128 -0.9
v -256 -144 -0.9
v -272 -144 -0.9
v -272 -128 -0.9
v -256 -128 -0.9
v -80 -160 -1
v -96 -160 -1
v -96 -144 -1
v -80 -144 -1
v -96 -160 -1
v -112 -160 -1
v -112 -144 -1
v -96 -144 -1
v -112 -160 -1
v -128 -160 -1
v -128 -144 -1
v -112 -144 -1
v -128 -160 -1
v -144 -160 -1
v -144 -144 -1
v -128 -144 -1
v -144 -160 -1
v -160 -160 -1
v -160 -144 -1
v -144 -144 -1
v -160 -160 -1
v -176 -160 -1
v -176 -144 -1
v -160 -144 -1
v -176 -160 -1
v -192 -160 -1
v -192 -144 -1
v -176 -144 -1
v -192 -160 -1
v -208 -160 -1
v -208 -144 -1
v -192 -144 -1
v -208 -160 -1
v -224 -160 -1
v -224 -144 -1
v -208 -144 -1
v -224 -160 -1
v -240 -160 -1
v -240 -144 -1
v -224 -144 -1

# Texture cooridinates (Count = 16)
vt 0.4378947 0.2962963
vt 0.4547368 0.2962963
vt 0.4547368 0.3333333
vt 0.4378947 0.3333333
vt 0.471579 0.2962963
vt 0.471579 0.3333333
vt 0.4884211 0.2962963
vt 0.4884211 0.3333333
vt 0.4884211 0.2592593
vt 0.471579 0.2592593
vt 0.471579 0.2222222
vt 0.4884211 0.2222222
vt 0.4378947 0.2592593
vt 0.4547368 0.2592593
vt 0.4378947 0.2222222
vt 0.4547368 0.2222222

# Normal
vn 0 0 -1

# Mesh description
g AnimatedWaterTest_mesh_0005

# Faces
f 1/1/1 2/2/1 3/3/1 4/4/1
f 5/2/1 6/5/1 7/6/1 8/3/1
f 9/2/1 10/5/1 11/6/1 12/3/1
f 13/2/1 14/3/1 15/4/1 16/1/1
f 17/1/1 18/2/1 19/3/1 20/4/1
f 21/5/1 22/7/1 23/8/1 24/6/1
f 25/9/1 26/10/1 27/11/1 28/12/1
f 29/2/1 30/3/1 31/4/1 32/1/1
f 33/13/1 34/14/1 35/2/1 36/1/1
f 37/9/1 38/10/1 39/11/1 40/12/1
f 41/2/1 42/5/1 43/6/1 44/3/1
f 45/2/1 46/5/1 47/6/1 48/3/1
f 49/2/1 50/5/1 51/6/1 52/3/1
f 53/2/1 54/5/1 55/6/1 56/3/1
f 57/2/1 58/5/1 59/6/1 60/3/1
f 61/2/1 62/3/1 63/4/1 64/1/1
f 65/1/1 66/2/1 67/3/1 68/4/1
f 69/5/1 70/7/1 71/8/1 72/6/1
f 73/9/1 74/10/1 75/11/1 76/12/1
f 77/2/1 78/5/1 79/6/1 80/3/1
f 81/2/1 82/5/1 83/6/1 84/3/1
f 85/2/1 86/3/1 87/4/1 88/1/1
f 89/13/1 90/14/1 91/2/1 92/1/1
f 93/9/1 94/10/1 95/11/1 96/12/1
f 97/2/1 98/3/1 99/4/1 100/1/1
f 101/15/1 102/16/1 103/14/1 104/13/1
f 105/11/1 106/12/1 107/9/1 108/10/1
f 109/5/1 110/6/1 111/3/1 112/2/1
f 113/13/1 114/14/1 115/2/1 116/1/1
f 117/5/1 118/6/1 119/3/1 120/2/1
f 121/15/1 122/16/1 123/14/1 124/13/1
f 125/11/1 126/12/1 127/9/1 128/10/1
f 129/5/1 130/6/1 131/3/1 132/2/1
f 133/15/1 134/16/1 135/14/1 136/13/1
f 137/16/1 138/11/1 139/10/1 140/14/1
f 141/16/1 142/11/1 143/10/1 144/14/1
f 145/11/1 146/12/1 147/9/1 148/10/1
f 149/10/1 150/11/1 151/12/1 152/9/1
f 153/16/1 154/11/1 155/10/1 156/14/1
f 157/13/1 158/15/1 159/16/1 160/14/1
f 161/15/1 162/16/1 163/14/1 164/13/1
f 165/16/1 166/11/1 167/10/1 168/14/1
f 169/16/1 170/11/1 171/10/1 172/14/1
f 173/16/1 174/11/1 175/10/1 176/14/1
f 177/16/1 178/11/1 179/10/1 180/14/1
f 181/16/1 182/11/1 183/10/1 184/14/1
f 185/16/1 186/11/1 187/10/1 188/14/1
f 189/16/1 190/11/1 191/10/1 192/14/1
f 193/16/1 194/11/1 195/10/1 196/14/1
f 197/13/1 198/15/1 199/16/1 200/14/1

