%YAML 1.1
%TAG !u! tag:unity3d.com,2011:
--- !u!1045 &1
EditorBuildSettings:
  m_ObjectHideFlags: 0
  serializedVersion: 2
  m_Scenes:
  - enabled: 0
    path: Assets/QuickSetup/Scenes/Client.unity
    guid: 0e99fe7772e673c45bf62f6c82edbd4c
  - enabled: 1
    path: Assets/GameLevels/Crypt1.unity
    guid: 8fe6c93037d14124f92d9b940f65b819
  m_configObjects: {}
