%YAML 1.1
%TAG !u! tag:unity3d.com,2011:
--- !u!114 &1
MonoBehaviour:
  m_ObjectHideFlags: 52
  m_CorrespondingSourceObject: {fileID: 0}
  m_PrefabInstance: {fileID: 0}
  m_PrefabAsset: {fileID: 0}
  m_GameObject: {fileID: 0}
  m_Enabled: 1
  m_EditorHideFlags: 0
  m_Script: {fileID: 11500000, guid: 6210598a979f8724a8dac4531c428889, type: 3}
  m_Name: Line Brush
  m_EditorClassIdentifier: 
  m_Cells:
  - m_Tile: {fileID: 11400000, guid: b7e71e7afd63d0b4e906d65235e9d0c7, type: 2}
    m_Matrix:
      e00: 1
      e01: 0
      e02: 0
      e03: 0
      e10: 0
      e11: 1
      e12: 0
      e13: 0
      e20: 0
      e21: 0
      e22: 1
      e23: 0
      e30: 0
      e31: 0
      e32: 0
      e33: 1
    m_Color: {r: 1, g: 1, b: 1, a: 1}
  m_Size: {x: 1, y: 1, z: 1}
  m_Pivot: {x: 0, y: 0, z: 0}
  lineStartActive: 0
  fillGaps: 0
  lineStart: {x: 2, y: 66, z: 0}
