%YAML 1.1
%TAG !u! tag:unity3d.com,2011:
--- !u!114 &11400000
MonoBehaviour:
  m_ObjectHideFlags: 0
  m_CorrespondingSourceObject: {fileID: 0}
  m_PrefabInstance: {fileID: 0}
  m_PrefabAsset: {fileID: 0}
  m_GameObject: {fileID: 0}
  m_Enabled: 1
  m_EditorHideFlags: 0
  m_Script: {fileID: 11500000, guid: caab5e3ef753f414581e496392f69fa6, type: 3}
  m_Name: BarbPants1
  m_EditorClassIdentifier: 
  ItemDataName: 
  ItemDataDescription: 
  ItemDataSprite: {fileID: 21300022, guid: be4c5798763f13d4497a325adfc79eb7, type: 3}
  ItemDataType: 4
  ItemDropChance: 5
  ItemDataID: 44
  RandomEnchantments: 1
  ItemQualityCoefficient: 1
  CustomStat1: 
  CustomStat2: 
  ClassType: 0
  GearSpritesData: {fileID: 0}
