%YAML 1.1
%TAG !u! tag:unity3d.com,2011:
--- !u!114 &11400000
MonoBehaviour:
  m_ObjectHideFlags: 0
  m_CorrespondingSourceObject: {fileID: 0}
  m_PrefabInstance: {fileID: 0}
  m_PrefabAsset: {fileID: 0}
  m_GameObject: {fileID: 0}
  m_Enabled: 1
  m_EditorHideFlags: 0
  m_Script: {fileID: 11500000, guid: caab5e3ef753f414581e496392f69fa6, type: 3}
  m_Name: BarbHelm2
  m_EditorClassIdentifier: 
  ItemDataName: 
  ItemDataDescription: 
  ItemDataSprite: {fileID: 21300000, guid: 08ba88bcc6280d2489f9055a52e99a02, type: 3}
  ItemDataType: 2
  ItemDropChance: 2
  ItemDataID: 25
  RandomEnchantments: 1
  ItemQualityCoefficient: 1
  CustomStats: []
  ItemDataAura: {fileID: 0}
  ClassType: 0
  GearSpritesData: {fileID: 0}
