%YAML 1.1
%TAG !u! tag:unity3d.com,2011:
--- !u!114 &11400000
MonoBehaviour:
  m_ObjectHideFlags: 0
  m_CorrespondingSourceObject: {fileID: 0}
  m_PrefabInstance: {fileID: 0}
  m_PrefabAsset: {fileID: 0}
  m_GameObject: {fileID: 0}
  m_Enabled: 1
  m_EditorHideFlags: 0
  m_Script: {fileID: 11500000, guid: 16ae6fdff9bd0c9459bdfa6b83abdf91, type: 3}
  m_Name: ForestEndRooms
  m_EditorClassIdentifier: 
  Rooms:
  - {fileID: 7769653843685898985, guid: 1f30e7cec7c873c489bf3c69542df2c8, type: 3}
  - {fileID: 157184474286945575, guid: f48a336017c63fb45bb98345e5a3f832, type: 3}
  - {fileID: 6334509485803845748, guid: a93a166c254447f4081efd0327fc4565, type: 3}
  - {fileID: 4002487968817703853, guid: 2c23aaa659b79854295268a0d4d45b66, type: 3}
  StartRooms: []
