%YAML 1.1
%TAG !u! tag:unity3d.com,2011:
--- !u!114 &11400000
MonoBehaviour:
  m_ObjectHideFlags: 0
  m_CorrespondingSourceObject: {fileID: 0}
  m_PrefabInstance: {fileID: 0}
  m_PrefabAsset: {fileID: 0}
  m_GameObject: {fileID: 0}
  m_Enabled: 1
  m_EditorHideFlags: 0
  m_Script: {fileID: 11500000, guid: 16ae6fdff9bd0c9459bdfa6b83abdf91, type: 3}
  m_Name: ForestNormalRoomList
  m_EditorClassIdentifier: 
  Rooms:
  - {fileID: 2183951623742788956, guid: 2a7ddd028db74f742917b72046b705ab, type: 3}
  - {fileID: 363589450465179435, guid: 811bc67aee9b9d148b19ce487038216a, type: 3}
  - {fileID: 7829482991180948419, guid: 256c68c3030c52441843b720579e4aeb, type: 3}
  - {fileID: 2193505535707836706, guid: 61421d1b48807054e8cbd40c27424958, type: 3}
  StartRooms:
  - {fileID: 7734347752896840569, guid: f046a22a286a20648aed86899cad3a23, type: 3}
  - {fileID: 2183951623742788956, guid: 2a7ddd028db74f742917b72046b705ab, type: 3}
