%YAML 1.1
%TAG !u! tag:unity3d.com,2011:
--- !u!1 &1781606946594144
GameObject:
  m_ObjectHideFlags: 0
  m_CorrespondingSourceObject: {fileID: 0}
  m_PrefabInstance: {fileID: 0}
  m_PrefabAsset: {fileID: 0}
  serializedVersion: 6
  m_Component:
  - component: {fileID: 4774192189455600}
  - component: {fileID: 114286174386708222}
  m_Layer: 0
  m_Name: ForestDungeonGenerator
  m_TagString: Untagged
  m_Icon: {fileID: 0}
  m_NavMeshLayer: 0
  m_StaticEditorFlags: 0
  m_IsActive: 1
--- !u!4 &4774192189455600
Transform:
  m_ObjectHideFlags: 0
  m_CorrespondingSourceObject: {fileID: 0}
  m_PrefabInstance: {fileID: 0}
  m_PrefabAsset: {fileID: 0}
  m_GameObject: {fileID: 1781606946594144}
  m_LocalRotation: {x: 0, y: 0, z: 0, w: 1}
  m_LocalPosition: {x: 0, y: 0, z: 0}
  m_LocalScale: {x: 1, y: 1, z: 1}
  m_Children: []
  m_Father: {fileID: 0}
  m_RootOrder: 0
  m_LocalEulerAnglesHint: {x: 0, y: 0, z: 0}
--- !u!114 &114286174386708222
MonoBehaviour:
  m_ObjectHideFlags: 0
  m_CorrespondingSourceObject: {fileID: 0}
  m_PrefabInstance: {fileID: 0}
  m_PrefabAsset: {fileID: 0}
  m_GameObject: {fileID: 1781606946594144}
  m_Enabled: 1
  m_EditorHideFlags: 0
  m_Script: {fileID: 11500000, guid: 9c8e69c03b3ab5b4aab78479e302d33d, type: 3}
  m_Name: 
  m_EditorClassIdentifier: 
  MapRef: {fileID: 114791764692192332, guid: c90022f69fcebc14881205ba9f40c853, type: 3}
  NormalRoomList: {fileID: 11400000, guid: 4e31ce897ab4b1947ab8b24883866706, type: 2}
  CorridorList: {fileID: 11400000, guid: 3c0983249caa6eb41ac9e57da472d017, type: 2}
  EndRoomList: {fileID: 11400000, guid: 03170f6a3d4dafe40823e6f47a031729, type: 2}
  BossRoomList: {fileID: 11400000, guid: 17945bb88289e514c8da7c102b6933b1, type: 2}
  Waves: 2
  TheStaircase: {fileID: 0}
  DestructableSpawnChance: 75
  ChestSpawnChance: 10
  Destructables:
  - {fileID: 114158742609990702, guid: ea97b0388bf476343b4b9561830c6691, type: 3}
  - {fileID: 114662884790096478, guid: 69142bf55136bf34097f14552dce9cc7, type: 3}
  ChestsList:
  - {fileID: 114151843801001292, guid: 26941c2c30c41fd4eae149157469d82d, type: 3}
