%YAML 1.1
%TAG !u! tag:unity3d.com,2011:
--- !u!114 &11400000
MonoBehaviour:
  m_ObjectHideFlags: 0
  m_CorrespondingSourceObject: {fileID: 0}
  m_PrefabInstance: {fileID: 0}
  m_PrefabAsset: {fileID: 0}
  m_GameObject: {fileID: 0}
  m_Enabled: 1
  m_EditorHideFlags: 0
  m_Script: {fileID: 11500000, guid: 17fac6b296481bb42ae64ac84446c252, type: 3}
  m_Name: TestTable1
  m_EditorClassIdentifier: 
  ItemList:
  - {fileID: 11400000, guid: e1f9a0e51194ea8468e6c7c5967ed1fb, type: 2}
  - {fileID: 11400000, guid: 1bea023e5f3d89c4a86e931e3b3c3842, type: 2}
  - {fileID: 11400000, guid: f76d4495cf729624183c18f26498c81d, type: 2}
  - {fileID: 11400000, guid: cc10ed468e806f742a3bd9257d80c702, type: 2}
  - {fileID: 11400000, guid: ada04a1b2aa2d4c448e2b428a82cc7a0, type: 2}
  - {fileID: 11400000, guid: f134560e1c655274f8fc630e9e4a3ef5, type: 2}
  - {fileID: 11400000, guid: 25ed2af6dfbc4874a9beebbd18747412, type: 2}
  - {fileID: 11400000, guid: 77f15b1e234e9cd4ca5650175ac78d6b, type: 2}
  - {fileID: 11400000, guid: a3c088c00ff3eb1489d6f0f8f7e79aa6, type: 2}
  - {fileID: 11400000, guid: 27d18cb7960152d4ea8efc34ea358f0b, type: 2}
  - {fileID: 11400000, guid: bf8649b77b21883468219049e2d603f6, type: 2}
  - {fileID: 11400000, guid: ced483a98d4970d41b664e302611cbc4, type: 2}
  TableQualityCoefficient: 1
