%YAML 1.1
%TAG !u! tag:unity3d.com,2011:
--- !u!114 &11400000
MonoBehaviour:
  m_ObjectHideFlags: 0
  m_CorrespondingSourceObject: {fileID: 0}
  m_PrefabInstance: {fileID: 0}
  m_PrefabAsset: {fileID: 0}
  m_GameObject: {fileID: 0}
  m_Enabled: 1
  m_EditorHideFlags: 0
  m_Script: {fileID: 11500000, guid: 2eea9599fe214454aa70c13c6858878a, type: 3}
  m_Name: GrassSlowAura
  m_EditorClassIdentifier: 
  FriendlyAuraBuff: {fileID: 0}
  FoeAuraBuff: {fileID: 11400000, guid: d98ced310c498c541a10faf4c826641c, type: 2}
  AuraAnimator: {fileID: 11400000, guid: 582981a9d5c7ff646bb997c7dd546963, type: 2}
  AuraTipData: Emits a forest energy aura that slows enemies by 20%.
