%YAML 1.1
%TAG !u! tag:unity3d.com,2011:
--- !u!1 &1108906627001138
GameObject:
  m_ObjectHideFlags: 0
  m_CorrespondingSourceObject: {fileID: 0}
  m_PrefabInstance: {fileID: 0}
  m_PrefabAsset: {fileID: 0}
  serializedVersion: 6
  m_Component:
  - component: {fileID: 4497843360264422}
  - component: {fileID: 114324946406505266}
  m_Layer: 0
  m_Name: RoomPosition
  m_TagString: Untagged
  m_Icon: {fileID: 0}
  m_NavMeshLayer: 0
  m_StaticEditorFlags: 4294967295
  m_IsActive: 1
--- !u!4 &4497843360264422
Transform:
  m_ObjectHideFlags: 0
  m_CorrespondingSourceObject: {fileID: 0}
  m_PrefabInstance: {fileID: 0}
  m_PrefabAsset: {fileID: 0}
  m_GameObject: {fileID: 1108906627001138}
  m_LocalRotation: {x: 0, y: 0, z: 0, w: 1}
  m_LocalPosition: {x: 0.25, y: -0.74, z: 0}
  m_LocalScale: {x: 2.040816, y: 2.040816, z: 1}
  m_Children: []
  m_Father: {fileID: 0}
  m_RootOrder: 0
  m_LocalEulerAnglesHint: {x: 0, y: 0, z: 0}
--- !u!114 &114324946406505266
MonoBehaviour:
  m_ObjectHideFlags: 0
  m_CorrespondingSourceObject: {fileID: 0}
  m_PrefabInstance: {fileID: 0}
  m_PrefabAsset: {fileID: 0}
  m_GameObject: {fileID: 1108906627001138}
  m_Enabled: 1
  m_EditorHideFlags: 0
  m_Script: {fileID: 11500000, guid: c6260dc6d069920458f3fd9eec15d028, type: 3}
  m_Name: 
  m_EditorClassIdentifier: 
  UseAsWaypoint: 1
  ExtraPoints:
  - {x: 1, y: 1, z: 0}
  - {x: -1, y: 1, z: 0}
  - {x: -1, y: -1, z: 0}
  - {x: 1, y: -1, z: 0}
  - {x: 2, y: 0, z: 0}
  - {x: -2, y: 0, z: 0}
  WaypointRadius: 3
  Destructables:
  - {fileID: 114662884790096478, guid: 69142bf55136bf34097f14552dce9cc7, type: 3}
  - {fileID: 114158742609990702, guid: ea97b0388bf476343b4b9561830c6691, type: 3}
  Chests:
  - {fileID: 114151843801001292, guid: 26941c2c30c41fd4eae149157469d82d, type: 3}
  ChestSpawnChance: 5
  DestructableSpawnChance: 25
  StaircasePoint: 0
