%YAML 1.1
%TAG !u! tag:unity3d.com,2011:
--- !u!114 &11400000
MonoBehaviour:
  m_ObjectHideFlags: 0
  m_CorrespondingSourceObject: {fileID: 0}
  m_PrefabInstance: {fileID: 0}
  m_PrefabAsset: {fileID: 0}
  m_GameObject: {fileID: 0}
  m_Enabled: 1
  m_EditorHideFlags: 0
  m_Script: {fileID: 11500000, guid: bc74d09736cd5534180ef075301de58f, type: 3}
  m_Name: FrozenDebuff
  m_EditorClassIdentifier: 
  BuffIcon: {fileID: 21300014, guid: 6bc5af3fea084cd4b92ffb1c3442c7bc, type: 3}
  BuffDuration: 0
  NoDuration: 1
  StatToAffect: RunSpeed
  AmountToAffect: -30
  AsPercent: 1
  ColorTint: {r: 0.08235294, g: 0.20392157, b: 0.59607846, a: 1}
  BuffToolTip: Reduces enemies run speed by 30%
  BuffID: 101
