%YAML 1.1
%TAG !u! tag:unity3d.com,2011:
--- !u!114 &11400000
MonoBehaviour:
  m_ObjectHideFlags: 0
  m_CorrespondingSourceObject: {fileID: 0}
  m_PrefabInstance: {fileID: 0}
  m_PrefabAsset: {fileID: 0}
  m_GameObject: {fileID: 0}
  m_Enabled: 1
  m_EditorHideFlags: 0
  m_Script: {fileID: 11500000, guid: bc74d09736cd5534180ef075301de58f, type: 3}
  m_Name: SlowSlime
  m_EditorClassIdentifier: 
  BuffIcon: {fileID: 21300118, guid: ba218905da49b734abf9145dc4837c3f, type: 3}
  BuffDuration: 3
  NoDuration: 0
  StatToAffect: RunSpeed
  AmountToAffect: -50
  AsPercent: 1
  ColorTint: {r: 0.7829487, g: 0.8117647, b: 0.2627451, a: 1}
  BuffToolTip: 'Covered in slime

    movement speed is reduced

    by 50%'
  BuffID: 110
