%YAML 1.1
%TAG !u! tag:unity3d.com,2011:
--- !u!114 &11400000
MonoBehaviour:
  m_ObjectHideFlags: 0
  m_CorrespondingSourceObject: {fileID: 0}
  m_PrefabInstance: {fileID: 0}
  m_PrefabAsset: {fileID: 0}
  m_GameObject: {fileID: 0}
  m_Enabled: 1
  m_EditorHideFlags: 0
  m_Script: {fileID: 11500000, guid: 0847394e302960d438adb36923d6e7e6, type: 3}
  m_Name: BarbPowerUp
  m_EditorClassIdentifier: 
  AbilityName: PowerButt
  AbilityIcon: {fileID: 21300000, guid: 3de19342accc83a48ba1b72959cd5a3a, type: 3}
  AbilitySoundEffect: {fileID: 8300000, guid: 5b7b37711717b3640a45b4625a60faf0, type: 3}
  AbilityBaseCoolDown: 45
  ResourceCost: 20
  IsAvaliable: 1
  AbilityDescription: The user grunts so hard his balls glow red
  PowerUpSpriteAnim: {fileID: 11400000, guid: 48091314dec70a447984d862ee89b7f5, type: 2}
  PowerUpBuff: {fileID: 11400000, guid: 3e07bdfe0d71bdc4d92e31376bf0135b, type: 2}
